sim_run.log
# vsim -l D:/AXI/sim_run.log -voptargs=+acc -t ps work.dual_master_system_ip_tb 
# Loading work.dual_master_system_ip_tb
# Loading work.dual_master_system_ip
# Loading work.serv_axi_wrapper
# Loading work.serv_rf_top
# Loading work.serv_rf_ram_if
# Loading work.serv_rf_ram
# Loading work.serv_top
# Loading work.serv_state
# Loading work.serv_decode
# Loading work.serv_immdec
# Loading work.serv_bufreg
# Loading work.serv_bufreg2
# Loading work.serv_ctrl
# Loading work.serv_alu
# Loading work.serv_rf_if
# Loading work.serv_mem_if
# Loading work.wb2axi_read
# Loading work.wb2axi_write
# Loading work.CPU_ALU_Master
# Loading work.ALU_Core
# Loading work.CPU_Controller
# Loading work.AXI_Interconnect_Full
# Loading work.AW_Channel_Controller_Top
# Loading work.Qos_Arbiter
# Loading work.Faling_Edge_Detc
# Loading work.Raising_Edge_Det
# Loading work.AW_HandShake_Checker
# Loading work.Demux_1_2
# Loading work.AW_MUX_2_1
# Loading work.Write_Addr_Channel_Dec
# Loading work.WD_Channel_Controller_Top
# Loading work.Queue
# Loading work.WD_HandShake
# Loading work.WD_MUX_2_1
# Loading work.BR_Channel_Controller_Top
# Loading work.WR_HandShake
# Loading work.Write_Resp_Channel_Arb
# Loading work.BReady_MUX_2_1
# Loading work.Write_Resp_Channel_Dec
# Loading work.AR_Channel_Controller_Top
# Loading work.Read_Arbiter
# Loading work.Mux_2x1
# Loading work.Read_Addr_Channel_Dec
# Loading work.Controller
# Loading work.Demux_1x4
# Loading work.Mux_4x1
# Loading work.axi_memory_slave
# Loading work.serv_csr
# ** Warning: (vsim-8607) D:/AXI/src/cores/serv/rtl/serv_csr.v(93): Non-positive replication multiplier inside concat. Replication will be ignored.
# 
#  run 4000ns 
# ** Warning: (vsim-7) Failed to open readmem file "../../sim/modelsim/test_program_simple.hex" in read mode.
# 
# No such file or directory. (errno = ENOENT)    : D:/AXI/src/wrapper/memory/axi_memory_slave.v(109)
#    Time: 0 ps  Iteration: 0  Instance: /dual_master_system_ip_tb/u_dut/u_inst_mem
# ============================================================================
# Dual Master System IP Testbench
# ============================================================================
# Complete IP Module with Integrated Memory Slaves
#   - SERV RISC-V Core (Instruction + Data buses)
#   - ALU Master
#   - Instruction Memory (ROM): Integrated
#   - Data Memory (RAM): Integrated
#   - ALU Memory (RAM): Integrated
#   - Reserved Memory (ROM): Integrated
#   - No external slave connections needed!
# ============================================================================
# 
# [100000] Reset released
# [105000] MEM_SLAVE[dual_master_system_ip_tb.u_dut.u_inst_mem] READ: FAILED (mem_rd_en=0 addr=0 MEM_SIZE=1024)
# [105000] MEM_SLAVE[dual_master_system_ip_tb.u_dut.u_data_mem] READ: FAILED (mem_rd_en=0 addr=0 MEM_SIZE=1024)
# [105000] MEM_SLAVE[dual_master_system_ip_tb.u_dut.u_alu_mem] READ: FAILED (mem_rd_en=0 addr=0 MEM_SIZE=1024)
# [105000] MEM_SLAVE[dual_master_system_ip_tb.u_dut.u_reserved_mem] READ: FAILED (mem_rd_en=0 addr=0 MEM_SIZE=1024)
# [115000] MEM_SLAVE[dual_master_system_ip_tb.u_dut.u_inst_mem] READ: FAILED (mem_rd_en=0 addr=0 MEM_SIZE=1024)
# [115000] MEM_SLAVE[dual_master_system_ip_tb.u_dut.u_data_mem] READ: FAILED (mem_rd_en=0 addr=0 MEM_SIZE=1024)
# [115000] MEM_SLAVE[dual_master_system_ip_tb.u_dut.u_alu_mem] READ: FAILED (mem_rd_en=0 addr=0 MEM_SIZE=1024)
# [115000] MEM_SLAVE[dual_master_system_ip_tb.u_dut.u_reserved_mem] READ: FAILED (mem_rd_en=0 addr=0 MEM_SIZE=1024)
# [125000] MEM_SLAVE[dual_master_system_ip_tb.u_dut.u_inst_mem] READ: FAILED (mem_rd_en=0 addr=0 MEM_SIZE=1024)
# [125000] MEM_SLAVE[dual_master_system_ip_tb.u_dut.u_data_mem] READ: FAILED (mem_rd_en=0 addr=0 MEM_SIZE=1024)
# [125000] MEM_SLAVE[dual_master_system_ip_tb.u_dut.u_alu_mem] READ: FAILED (mem_rd_en=0 addr=0 MEM_SIZE=1024)
# [125000] MEM_SLAVE[dual_master_system_ip_tb.u_dut.u_reserved_mem] READ: FAILED (mem_rd_en=0 addr=0 MEM_SIZE=1024)
# [135000] MEM_SLAVE[dual_master_system_ip_tb.u_dut.u_inst_mem] READ: FAILED (mem_rd_en=0 addr=0 MEM_SIZE=1024)
# [135000] MEM_SLAVE[dual_master_system_ip_tb.u_dut.u_data_mem] READ: FAILED (mem_rd_en=0 addr=0 MEM_SIZE=1024)
# [135000] MEM_SLAVE[dual_master_system_ip_tb.u_dut.u_alu_mem] READ: FAILED (mem_rd_en=0 addr=0 MEM_SIZE=1024)
# [135000] MEM_SLAVE[dual_master_system_ip_tb.u_dut.u_reserved_mem] READ: FAILED (mem_rd_en=0 addr=0 MEM_SIZE=1024)
# [145000] MEM_SLAVE[dual_master_system_ip_tb.u_dut.u_inst_mem] READ: FAILED (mem_rd_en=0 addr=0 MEM_SIZE=1024)
# [145000] MEM_SLAVE[dual_master_system_ip_tb.u_dut.u_data_mem] READ: FAILED (mem_rd_en=0 addr=0 MEM_SIZE=1024)
# [145000] MEM_SLAVE[dual_master_system_ip_tb.u_dut.u_alu_mem] READ: FAILED (mem_rd_en=0 addr=0 MEM_SIZE=1024)
# [145000] MEM_SLAVE[dual_master_system_ip_tb.u_dut.u_reserved_mem] READ: FAILED (mem_rd_en=0 addr=0 MEM_SIZE=1024)
# [155000] MEM_SLAVE[dual_master_system_ip_tb.u_dut.u_inst_mem] READ: FAILED (mem_rd_en=0 addr=0 MEM_SIZE=1024)
# [155000] MEM_SLAVE[dual_master_system_ip_tb.u_dut.u_data_mem] READ: FAILED (mem_rd_en=0 addr=0 MEM_SIZE=1024)
# [155000] MEM_SLAVE[dual_master_system_ip_tb.u_dut.u_alu_mem] READ: FAILED (mem_rd_en=0 addr=0 MEM_SIZE=1024)
# [155000] MEM_SLAVE[dual_master_system_ip_tb.u_dut.u_reserved_mem] READ: FAILED (mem_rd_en=0 addr=0 MEM_SIZE=1024)
# [165000] MEM_SLAVE[dual_master_system_ip_tb.u_dut.u_inst_mem] READ: FAILED (mem_rd_en=0 addr=0 MEM_SIZE=1024)
# [165000] MEM_SLAVE[dual_master_system_ip_tb.u_dut.u_data_mem] READ: FAILED (mem_rd_en=0 addr=0 MEM_SIZE=1024)
# [165000] MEM_SLAVE[dual_master_system_ip_tb.u_dut.u_alu_mem] READ: FAILED (mem_rd_en=0 addr=0 MEM_SIZE=1024)
# [165000] MEM_SLAVE[dual_master_system_ip_tb.u_dut.u_reserved_mem] READ: FAILED (mem_rd_en=0 addr=0 MEM_SIZE=1024)
# [175000] MEM_SLAVE[dual_master_system_ip_tb.u_dut.u_inst_mem] READ: FAILED (mem_rd_en=0 addr=0 MEM_SIZE=1024)
# [175000] MEM_SLAVE[dual_master_system_ip_tb.u_dut.u_data_mem] READ: FAILED (mem_rd_en=0 addr=0 MEM_SIZE=1024)
# [175000] MEM_SLAVE[dual_master_system_ip_tb.u_dut.u_alu_mem] READ: FAILED (mem_rd_en=0 addr=0 MEM_SIZE=1024)
# [175000] MEM_SLAVE[dual_master_system_ip_tb.u_dut.u_reserved_mem] READ: FAILED (mem_rd_en=0 addr=0 MEM_SIZE=1024)
# [185000] MEM_SLAVE[dual_master_system_ip_tb.u_dut.u_inst_mem] READ: FAILED (mem_rd_en=0 addr=0 MEM_SIZE=1024)
# [185000] MEM_SLAVE[dual_master_system_ip_tb.u_dut.u_data_mem] READ: FAILED (mem_rd_en=0 addr=0 MEM_SIZE=1024)
# [185000] MEM_SLAVE[dual_master_system_ip_tb.u_dut.u_alu_mem] READ: FAILED (mem_rd_en=0 addr=0 MEM_SIZE=1024)
# [185000] MEM_SLAVE[dual_master_system_ip_tb.u_dut.u_reserved_mem] READ: FAILED (mem_rd_en=0 addr=0 MEM_SIZE=1024)
# [195000] MEM_SLAVE[dual_master_system_ip_tb.u_dut.u_inst_mem] READ: FAILED (mem_rd_en=0 addr=0 MEM_SIZE=1024)
# [195000] MEM_SLAVE[dual_master_system_ip_tb.u_dut.u_data_mem] READ: FAILED (mem_rd_en=0 addr=0 MEM_SIZE=1024)
# [195000] MEM_SLAVE[dual_master_system_ip_tb.u_dut.u_alu_mem] READ: FAILED (mem_rd_en=0 addr=0 MEM_SIZE=1024)
# [195000] MEM_SLAVE[dual_master_system_ip_tb.u_dut.u_reserved_mem] READ: FAILED (mem_rd_en=0 addr=0 MEM_SIZE=1024)
# [200000] System ready
# [200000] Instruction Memory Ready: 0
# [200000] Data Memory Ready: 0
# [200000] ALU Memory Ready: 0
# [200000] Reserved Memory Ready: 0
# 
# AXI Slave Address Map:
#   Slave0 (Instruction ROM) : 0x00000000 - 0x3fffffff
#   Slave1 (Data RAM)        : 0x40000000 - 0x7fffffff
#   Slave2 (ALU RAM)         : 0x80000000 - 0xbfffffff
#   Slave3 (Reserved ROM)    : 0xc0000000 - 0xffffffff
#   ALU operand region base  : 0x80000040 (data slots start)
# 
# [200000] SERV RISC-V will start fetching instructions
# [200000] ALU Master Status: busy=0, done=0
# 
# [205000] MEM_SLAVE[dual_master_system_ip_tb.u_dut.u_inst_mem] READ: FAILED (mem_rd_en=0 addr=0 MEM_SIZE=1024)
# [205000] MEM_SLAVE[dual_master_system_ip_tb.u_dut.u_data_mem] READ: FAILED (mem_rd_en=0 addr=0 MEM_SIZE=1024)
# [205000] MEM_SLAVE[dual_master_system_ip_tb.u_dut.u_alu_mem] READ: FAILED (mem_rd_en=0 addr=0 MEM_SIZE=1024)
# [205000] MEM_SLAVE[dual_master_system_ip_tb.u_dut.u_reserved_mem] READ: FAILED (mem_rd_en=0 addr=0 MEM_SIZE=1024)
# [205000] ------------------------------------------------------------
# [205000] ALU Test 0: ADD basic
# [205000]   opcode=0000 | src1_addr=0x80000040 [Slave2] | src2_addr=0x80000044 [Slave2] | dst_addr=0x80000048 [Slave2] | PC=0x80000000
# [205000]   Operands/Expect (DEC): A=15 | B=27 | Expected=42
# [205000]   WRITE_TASK: byte_addr=0x80000000 data=0x00404448
# [205000]   ALU MEM[0x80000000] <= 0x00404448 (word 0)
# [205000]   WRITE_TASK: byte_addr=0x80000040 data=0x0000000f
# [205000]   ALU MEM[0x80000040] <= 0x0000000f (word 16)
# [205000]   WRITE_TASK: byte_addr=0x80000044 data=0x0000001b
# [205000]   ALU MEM[0x80000044] <= 0x0000001b (word 17)
# [205000]   WRITE_TASK: byte_addr=0x80000048 data=0x00000000
# [205000]   ALU MEM[0x80000048] <= 0x00000000 (word 18)
# [215000] CTRL STATE: 0 -> 1
# [215000] MEM_SLAVE[dual_master_system_ip_tb.u_dut.u_inst_mem] READ: FAILED (mem_rd_en=0 addr=0 MEM_SIZE=1024)
# [215000] MEM_SLAVE[dual_master_system_ip_tb.u_dut.u_data_mem] READ: FAILED (mem_rd_en=0 addr=0 MEM_SIZE=1024)
# [215000] MEM_SLAVE[dual_master_system_ip_tb.u_dut.u_alu_mem] READ: FAILED (mem_rd_en=0 addr=0 MEM_SIZE=1024)
# [215000] MEM_SLAVE[dual_master_system_ip_tb.u_dut.u_reserved_mem] READ: FAILED (mem_rd_en=0 addr=0 MEM_SIZE=1024)
# [225000] MEM_SLAVE[dual_master_system_ip_tb.u_dut.u_inst_mem] READ: FAILED (mem_rd_en=0 addr=0 MEM_SIZE=1024)
# [225000] MEM_SLAVE[dual_master_system_ip_tb.u_dut.u_data_mem] READ: FAILED (mem_rd_en=0 addr=0 MEM_SIZE=1024)
# [225000] MEM_SLAVE[dual_master_system_ip_tb.u_dut.u_alu_mem] READ: FAILED (mem_rd_en=0 addr=0 MEM_SIZE=1024)
# [225000] MEM_SLAVE[dual_master_system_ip_tb.u_dut.u_reserved_mem] READ: FAILED (mem_rd_en=0 addr=0 MEM_SIZE=1024)
# [225000]   ALU Master busy...
# [235000] MEM_SLAVE[dual_master_system_ip_tb.u_dut.u_inst_mem] READ: FAILED (mem_rd_en=0 addr=0 MEM_SIZE=1024)
# [235000] MEM_SLAVE[dual_master_system_ip_tb.u_dut.u_data_mem] READ: FAILED (mem_rd_en=0 addr=0 MEM_SIZE=1024)
# [235000] MEM_SLAVE[dual_master_system_ip_tb.u_dut.u_alu_mem] READ: FAILED (mem_rd_en=0 addr=0 MEM_SIZE=1024)
# [235000] MEM_SLAVE[dual_master_system_ip_tb.u_dut.u_reserved_mem] READ: FAILED (mem_rd_en=0 addr=0 MEM_SIZE=1024)
# [245000] MEM_SLAVE[dual_master_system_ip_tb.u_dut.u_inst_mem] READ: FAILED (mem_rd_en=0 addr=0 MEM_SIZE=1024)
# [245000] MEM_SLAVE[dual_master_system_ip_tb.u_dut.u_data_mem] READ: FAILED (mem_rd_en=0 addr=0 MEM_SIZE=1024)
# [245000] MEM_SLAVE[dual_master_system_ip_tb.u_dut.u_alu_mem] READ: FAILED (mem_rd_en=0 addr=0 MEM_SIZE=1024)
# [245000] MEM_SLAVE[dual_master_system_ip_tb.u_dut.u_reserved_mem] READ: FAILED (mem_rd_en=0 addr=0 MEM_SIZE=1024)
# [255000] MEM_SLAVE[dual_master_system_ip_tb.u_dut.u_inst_mem] READ: FAILED (mem_rd_en=0 addr=0 MEM_SIZE=1024)
# [255000] MEM_SLAVE[dual_master_system_ip_tb.u_dut.u_data_mem] READ: FAILED (mem_rd_en=0 addr=0 MEM_SIZE=1024)
# [255000] MEM_SLAVE[dual_master_system_ip_tb.u_dut.u_alu_mem] READ: addr=0 data=0x00404448 (from memory[0])
# [255000] MEM_SLAVE[dual_master_system_ip_tb.u_dut.u_reserved_mem] READ: FAILED (mem_rd_en=0 addr=0 MEM_SIZE=1024)
# [265000] CTRL FETCH_INSTR: fetched 0x00404448 from PC=0x00000000
# [265000] CTRL STATE: 1 -> 2
# [265000] MEM_SLAVE[dual_master_system_ip_tb.u_dut.u_inst_mem] READ: FAILED (mem_rd_en=0 addr=0 MEM_SIZE=1024)
# [265000] MEM_SLAVE[dual_master_system_ip_tb.u_dut.u_data_mem] READ: FAILED (mem_rd_en=0 addr=0 MEM_SIZE=1024)
# [265000] MEM_SLAVE[dual_master_system_ip_tb.u_dut.u_alu_mem] READ: addr=0 data=0x00404448 (from memory[0])
# [265000] MEM_SLAVE[dual_master_system_ip_tb.u_dut.u_reserved_mem] READ: FAILED (mem_rd_en=0 addr=0 MEM_SIZE=1024)
# [275000] CTRL STATE: 2 -> 3
# [275000] MEM_SLAVE[dual_master_system_ip_tb.u_dut.u_inst_mem] READ: FAILED (mem_rd_en=0 addr=0 MEM_SIZE=1024)
# [275000] MEM_SLAVE[dual_master_system_ip_tb.u_dut.u_data_mem] READ: FAILED (mem_rd_en=0 addr=0 MEM_SIZE=1024)
# [275000] MEM_SLAVE[dual_master_system_ip_tb.u_dut.u_alu_mem] READ: FAILED (mem_rd_en=0 addr=0 MEM_SIZE=1024)
# [275000] MEM_SLAVE[dual_master_system_ip_tb.u_dut.u_reserved_mem] READ: FAILED (mem_rd_en=0 addr=0 MEM_SIZE=1024)
# [285000] MEM_SLAVE[dual_master_system_ip_tb.u_dut.u_inst_mem] READ: FAILED (mem_rd_en=0 addr=0 MEM_SIZE=1024)
# [285000] MEM_SLAVE[dual_master_system_ip_tb.u_dut.u_data_mem] READ: FAILED (mem_rd_en=0 addr=0 MEM_SIZE=1024)
# [285000] MEM_SLAVE[dual_master_system_ip_tb.u_dut.u_alu_mem] READ: FAILED (mem_rd_en=0 addr=0 MEM_SIZE=1024)
# [285000] MEM_SLAVE[dual_master_system_ip_tb.u_dut.u_reserved_mem] READ: FAILED (mem_rd_en=0 addr=0 MEM_SIZE=1024)
# [295000] MEM_SLAVE[dual_master_system_ip_tb.u_dut.u_inst_mem] READ: FAILED (mem_rd_en=0 addr=0 MEM_SIZE=1024)
# [295000] MEM_SLAVE[dual_master_system_ip_tb.u_dut.u_data_mem] READ: FAILED (mem_rd_en=0 addr=0 MEM_SIZE=1024)
# [295000] MEM_SLAVE[dual_master_system_ip_tb.u_dut.u_alu_mem] READ: FAILED (mem_rd_en=0 addr=0 MEM_SIZE=1024)
# [295000] MEM_SLAVE[dual_master_system_ip_tb.u_dut.u_reserved_mem] READ: FAILED (mem_rd_en=0 addr=0 MEM_SIZE=1024)
# [305000] MEM_SLAVE[dual_master_system_ip_tb.u_dut.u_inst_mem] READ: FAILED (mem_rd_en=0 addr=0 MEM_SIZE=1024)
# [305000] MEM_SLAVE[dual_master_system_ip_tb.u_dut.u_data_mem] READ: FAILED (mem_rd_en=0 addr=0 MEM_SIZE=1024)
# [305000] MEM_SLAVE[dual_master_system_ip_tb.u_dut.u_alu_mem] READ: FAILED (mem_rd_en=0 addr=0 MEM_SIZE=1024)
# [305000] MEM_SLAVE[dual_master_system_ip_tb.u_dut.u_reserved_mem] READ: FAILED (mem_rd_en=0 addr=0 MEM_SIZE=1024)
# [315000] MEM_SLAVE[dual_master_system_ip_tb.u_dut.u_inst_mem] READ: FAILED (mem_rd_en=0 addr=0 MEM_SIZE=1024)
# [315000] MEM_SLAVE[dual_master_system_ip_tb.u_dut.u_data_mem] READ: FAILED (mem_rd_en=0 addr=0 MEM_SIZE=1024)
# [315000] MEM_SLAVE[dual_master_system_ip_tb.u_dut.u_alu_mem] READ: addr=16 data=0x0000000f (from memory[16])
# [315000] MEM_SLAVE[dual_master_system_ip_tb.u_dut.u_reserved_mem] READ: FAILED (mem_rd_en=0 addr=0 MEM_SIZE=1024)
# [325000] CTRL STATE: 3 -> 4
# [325000] MEM_SLAVE[dual_master_system_ip_tb.u_dut.u_inst_mem] READ: FAILED (mem_rd_en=0 addr=0 MEM_SIZE=1024)
# [325000] MEM_SLAVE[dual_master_system_ip_tb.u_dut.u_data_mem] READ: FAILED (mem_rd_en=0 addr=0 MEM_SIZE=1024)
# [325000] MEM_SLAVE[dual_master_system_ip_tb.u_dut.u_alu_mem] READ: addr=16 data=0x0000000f (from memory[16])
# [325000] MEM_SLAVE[dual_master_system_ip_tb.u_dut.u_reserved_mem] READ: FAILED (mem_rd_en=0 addr=0 MEM_SIZE=1024)
# [335000] MEM_SLAVE[dual_master_system_ip_tb.u_dut.u_inst_mem] READ: FAILED (mem_rd_en=0 addr=0 MEM_SIZE=1024)
# [335000] MEM_SLAVE[dual_master_system_ip_tb.u_dut.u_data_mem] READ: FAILED (mem_rd_en=0 addr=0 MEM_SIZE=1024)
# [335000] MEM_SLAVE[dual_master_system_ip_tb.u_dut.u_alu_mem] READ: FAILED (mem_rd_en=0 addr=16 MEM_SIZE=1024)
# [335000] MEM_SLAVE[dual_master_system_ip_tb.u_dut.u_reserved_mem] READ: FAILED (mem_rd_en=0 addr=0 MEM_SIZE=1024)
# [345000] MEM_SLAVE[dual_master_system_ip_tb.u_dut.u_inst_mem] READ: FAILED (mem_rd_en=0 addr=0 MEM_SIZE=1024)
# [345000] MEM_SLAVE[dual_master_system_ip_tb.u_dut.u_data_mem] READ: FAILED (mem_rd_en=0 addr=0 MEM_SIZE=1024)
# [345000] MEM_SLAVE[dual_master_system_ip_tb.u_dut.u_alu_mem] READ: FAILED (mem_rd_en=0 addr=16 MEM_SIZE=1024)
# [345000] MEM_SLAVE[dual_master_system_ip_tb.u_dut.u_reserved_mem] READ: FAILED (mem_rd_en=0 addr=0 MEM_SIZE=1024)
# [355000] MEM_SLAVE[dual_master_system_ip_tb.u_dut.u_inst_mem] READ: FAILED (mem_rd_en=0 addr=0 MEM_SIZE=1024)
# [355000] MEM_SLAVE[dual_master_system_ip_tb.u_dut.u_data_mem] READ: FAILED (mem_rd_en=0 addr=0 MEM_SIZE=1024)
# [355000] MEM_SLAVE[dual_master_system_ip_tb.u_dut.u_alu_mem] READ: FAILED (mem_rd_en=0 addr=16 MEM_SIZE=1024)
# [355000] MEM_SLAVE[dual_master_system_ip_tb.u_dut.u_reserved_mem] READ: FAILED (mem_rd_en=0 addr=0 MEM_SIZE=1024)
# [365000] MEM_SLAVE[dual_master_system_ip_tb.u_dut.u_inst_mem] READ: FAILED (mem_rd_en=0 addr=0 MEM_SIZE=1024)
# [365000] MEM_SLAVE[dual_master_system_ip_tb.u_dut.u_data_mem] READ: FAILED (mem_rd_en=0 addr=0 MEM_SIZE=1024)
# [365000] MEM_SLAVE[dual_master_system_ip_tb.u_dut.u_alu_mem] READ: addr=17 data=0x0000001b (from memory[17])
# [365000] MEM_SLAVE[dual_master_system_ip_tb.u_dut.u_reserved_mem] READ: FAILED (mem_rd_en=0 addr=0 MEM_SIZE=1024)
# [375000] CTRL STATE: 4 -> 5
# [375000] MEM_SLAVE[dual_master_system_ip_tb.u_dut.u_inst_mem] READ: FAILED (mem_rd_en=0 addr=0 MEM_SIZE=1024)
# [375000] MEM_SLAVE[dual_master_system_ip_tb.u_dut.u_data_mem] READ: FAILED (mem_rd_en=0 addr=0 MEM_SIZE=1024)
# [375000] MEM_SLAVE[dual_master_system_ip_tb.u_dut.u_alu_mem] READ: addr=17 data=0x0000001b (from memory[17])
# [375000] MEM_SLAVE[dual_master_system_ip_tb.u_dut.u_reserved_mem] READ: FAILED (mem_rd_en=0 addr=0 MEM_SIZE=1024)
# [385000] CTRL EXECUTE: opcode=0 src1=0x40 src2=0x44 dst=0x48 -> store_dst=0x48 result=0x0000002a
# [385000] CTRL STATE: 5 -> 7
# [385000] MEM_SLAVE[dual_master_system_ip_tb.u_dut.u_inst_mem] READ: FAILED (mem_rd_en=0 addr=0 MEM_SIZE=1024)
# [385000] MEM_SLAVE[dual_master_system_ip_tb.u_dut.u_data_mem] READ: FAILED (mem_rd_en=0 addr=0 MEM_SIZE=1024)
# [385000] MEM_SLAVE[dual_master_system_ip_tb.u_dut.u_alu_mem] READ: FAILED (mem_rd_en=0 addr=17 MEM_SIZE=1024)
# [385000] MEM_SLAVE[dual_master_system_ip_tb.u_dut.u_reserved_mem] READ: FAILED (mem_rd_en=0 addr=0 MEM_SIZE=1024)
# [395000] CTRL STATE: 7 -> 6
# [395000] MEM_SLAVE[dual_master_system_ip_tb.u_dut.u_inst_mem] READ: FAILED (mem_rd_en=0 addr=0 MEM_SIZE=1024)
# [395000] MEM_SLAVE[dual_master_system_ip_tb.u_dut.u_data_mem] READ: FAILED (mem_rd_en=0 addr=0 MEM_SIZE=1024)
# [395000] MEM_SLAVE[dual_master_system_ip_tb.u_dut.u_alu_mem] READ: FAILED (mem_rd_en=0 addr=17 MEM_SIZE=1024)
# [395000] MEM_SLAVE[dual_master_system_ip_tb.u_dut.u_reserved_mem] READ: FAILED (mem_rd_en=0 addr=0 MEM_SIZE=1024)
# [405000] MEM_SLAVE[dual_master_system_ip_tb.u_dut.u_inst_mem] READ: FAILED (mem_rd_en=0 addr=0 MEM_SIZE=1024)
# [405000] MEM_SLAVE[dual_master_system_ip_tb.u_dut.u_data_mem] READ: FAILED (mem_rd_en=0 addr=0 MEM_SIZE=1024)
# [405000] MEM_SLAVE[dual_master_system_ip_tb.u_dut.u_alu_mem] READ: FAILED (mem_rd_en=0 addr=17 MEM_SIZE=1024)
# [405000] MEM_SLAVE[dual_master_system_ip_tb.u_dut.u_reserved_mem] READ: FAILED (mem_rd_en=0 addr=0 MEM_SIZE=1024)
# [415000] MEM_SLAVE[dual_master_system_ip_tb.u_dut.u_inst_mem] READ: FAILED (mem_rd_en=0 addr=0 MEM_SIZE=1024)
# [415000] MEM_SLAVE[dual_master_system_ip_tb.u_dut.u_data_mem] READ: FAILED (mem_rd_en=0 addr=0 MEM_SIZE=1024)
# [415000] MEM_SLAVE[dual_master_system_ip_tb.u_dut.u_alu_mem] READ: FAILED (mem_rd_en=0 addr=17 MEM_SIZE=1024)
# [415000] MEM_SLAVE[dual_master_system_ip_tb.u_dut.u_reserved_mem] READ: FAILED (mem_rd_en=0 addr=0 MEM_SIZE=1024)
# [425000] MEM_SLAVE[dual_master_system_ip_tb.u_dut.u_inst_mem] READ: FAILED (mem_rd_en=0 addr=0 MEM_SIZE=1024)
# [425000] MEM_SLAVE[dual_master_system_ip_tb.u_dut.u_data_mem] READ: FAILED (mem_rd_en=0 addr=0 MEM_SIZE=1024)
# [425000] MEM_SLAVE[dual_master_system_ip_tb.u_dut.u_alu_mem] READ: FAILED (mem_rd_en=0 addr=17 MEM_SIZE=1024)
# [425000] MEM_SLAVE[dual_master_system_ip_tb.u_dut.u_reserved_mem] READ: FAILED (mem_rd_en=0 addr=0 MEM_SIZE=1024)
# [435000] AXI WDATA: addr=0x80000048 data=0x0000002a
# [435000] MEM_SLAVE[dual_master_system_ip_tb.u_dut.u_inst_mem] READ: FAILED (mem_rd_en=0 addr=0 MEM_SIZE=1024)
# [435000] MEM_SLAVE[dual_master_system_ip_tb.u_dut.u_data_mem] READ: FAILED (mem_rd_en=0 addr=0 MEM_SIZE=1024)
# [435000] MEM_SLAVE[dual_master_system_ip_tb.u_dut.u_alu_mem] READ: FAILED (mem_rd_en=0 addr=17 MEM_SIZE=1024)
# [435000] MEM_SLAVE[dual_master_system_ip_tb.u_dut.u_reserved_mem] READ: FAILED (mem_rd_en=0 addr=0 MEM_SIZE=1024)
# [435000] READ_DEC: addr=0x00000000 base_addr=00 -> Slave0
# [445000] MEM_SLAVE[dual_master_system_ip_tb.u_dut.u_inst_mem] READ: FAILED (mem_rd_en=0 addr=0 MEM_SIZE=1024)
# [445000] MEM_SLAVE[dual_master_system_ip_tb.u_dut.u_data_mem] READ: FAILED (mem_rd_en=0 addr=0 MEM_SIZE=1024)
# [445000] MEM_SLAVE[dual_master_system_ip_tb.u_dut.u_alu_mem] READ: FAILED (mem_rd_en=0 addr=17 MEM_SIZE=1024)
# [445000] MEM_SLAVE[dual_master_system_ip_tb.u_dut.u_reserved_mem] READ: FAILED (mem_rd_en=0 addr=0 MEM_SIZE=1024)
# [455000] MEM_SLAVE[dual_master_system_ip_tb.u_dut.u_inst_mem] READ: FAILED (mem_rd_en=0 addr=0 MEM_SIZE=1024)
# [455000] MEM_SLAVE[dual_master_system_ip_tb.u_dut.u_data_mem] READ: FAILED (mem_rd_en=0 addr=0 MEM_SIZE=1024)
# [455000] MEM_SLAVE[dual_master_system_ip_tb.u_dut.u_alu_mem] WRITE: addr=18 data=0x0000002a (to memory[18])
# [455000] MEM_SLAVE[dual_master_system_ip_tb.u_dut.u_alu_mem] READ: FAILED (mem_rd_en=0 addr=17 MEM_SIZE=1024)
# [455000] MEM_SLAVE[dual_master_system_ip_tb.u_dut.u_reserved_mem] READ: FAILED (mem_rd_en=0 addr=0 MEM_SIZE=1024)
# [455000] CTRL STORE_RESULT: wrote addr=0x80000048 data=0x0000002a (done)
# [465000] CTRL STATE: 6 -> 0
# [465000] AXI WDATA: addr=0x80000048 data=0x0000002a
# [465000] MEM_SLAVE[dual_master_system_ip_tb.u_dut.u_inst_mem] READ: addr=0 data=0x00000000 (from memory[0])
# [465000] MEM_SLAVE[dual_master_system_ip_tb.u_dut.u_data_mem] READ: FAILED (mem_rd_en=0 addr=0 MEM_SIZE=1024)
# [465000] MEM_SLAVE[dual_master_system_ip_tb.u_dut.u_alu_mem] READ: FAILED (mem_rd_en=0 addr=17 MEM_SIZE=1024)
# [465000] MEM_SLAVE[dual_master_system_ip_tb.u_dut.u_reserved_mem] READ: FAILED (mem_rd_en=0 addr=0 MEM_SIZE=1024)
# [465000]   ALU Master done
# [475000] MEM_SLAVE[dual_master_system_ip_tb.u_dut.u_inst_mem] READ: addr=0 data=0x00000000 (from memory[0])
# [475000] MEM_SLAVE[dual_master_system_ip_tb.u_dut.u_data_mem] READ: FAILED (mem_rd_en=0 addr=0 MEM_SIZE=1024)
# [475000] MEM_SLAVE[dual_master_system_ip_tb.u_dut.u_alu_mem] READ: FAILED (mem_rd_en=0 addr=17 MEM_SIZE=1024)
# [475000] MEM_SLAVE[dual_master_system_ip_tb.u_dut.u_reserved_mem] READ: FAILED (mem_rd_en=0 addr=0 MEM_SIZE=1024)
# [485000] MEM_SLAVE[dual_master_system_ip_tb.u_dut.u_inst_mem] READ: FAILED (mem_rd_en=0 addr=0 MEM_SIZE=1024)
# [485000] MEM_SLAVE[dual_master_system_ip_tb.u_dut.u_data_mem] READ: FAILED (mem_rd_en=0 addr=0 MEM_SIZE=1024)
# [485000] MEM_SLAVE[dual_master_system_ip_tb.u_dut.u_alu_mem] READ: FAILED (mem_rd_en=0 addr=17 MEM_SIZE=1024)
# [485000] MEM_SLAVE[dual_master_system_ip_tb.u_dut.u_reserved_mem] READ: FAILED (mem_rd_en=0 addr=0 MEM_SIZE=1024)
# [495000] MEM_SLAVE[dual_master_system_ip_tb.u_dut.u_inst_mem] READ: FAILED (mem_rd_en=0 addr=0 MEM_SIZE=1024)
# [495000] MEM_SLAVE[dual_master_system_ip_tb.u_dut.u_data_mem] READ: FAILED (mem_rd_en=0 addr=0 MEM_SIZE=1024)
# [495000] MEM_SLAVE[dual_master_system_ip_tb.u_dut.u_alu_mem] READ: FAILED (mem_rd_en=0 addr=17 MEM_SIZE=1024)
# [495000] MEM_SLAVE[dual_master_system_ip_tb.u_dut.u_reserved_mem] READ: FAILED (mem_rd_en=0 addr=0 MEM_SIZE=1024)
# [505000] MEM_SLAVE[dual_master_system_ip_tb.u_dut.u_inst_mem] READ: FAILED (mem_rd_en=0 addr=0 MEM_SIZE=1024)
# [505000] MEM_SLAVE[dual_master_system_ip_tb.u_dut.u_data_mem] READ: FAILED (mem_rd_en=0 addr=0 MEM_SIZE=1024)
# [505000] MEM_SLAVE[dual_master_system_ip_tb.u_dut.u_alu_mem] READ: FAILED (mem_rd_en=0 addr=17 MEM_SIZE=1024)
